Untitled
…
newdat = read_feather("data/s2_mild.feather")
newfit = varbvs(newdat[,-1], NULL, newdat[,1], family = "binomial", logodds = seq(-3.0,-1,0.1), sa = 1, verbose = F)

Error in varbvs(newdat[, -1], NULL, newdat[, 1], family = "binomial", : Input X must be a double-precision matrix with no missing values.
Traceback:

1. varbvs(newdat[, -1], NULL, newdat[, 1], family = "binomial", 
 .     logodds = seq(-3, -1, 0.1), sa = 1, verbose = F)
2. stop("Input X must be a double-precision matrix with no missing values.")

In [6]:

print (newdat)

# A tibble: 1,200 × 4
   phenotype   `0`   `1`   `2`
       <int> <int> <int> <int>
1          0     1     1     0
2          1     1     1     0
3          0     1     1     0
4          0     1     1     0
5          0     1     1     0
6          0     1     1     0
7          1     1     1     0
8          1     1     1     0
9          1     1     1     0
10         1     1     1     0
# ... with 1,190 more rows
…
